{
  "project_info": {
    "project_number": "579773023106",
    "firebase_url": "https://elite-personal-chefs.firebaseio.com",
    "project_id": "elite-personal-chefs",
    "storage_bucket": "elite-personal-chefs.appspot.com"
  },
  "client": [
    {
      "client_info": {
        "mobilesdk_app_id": "1:579773023106:android:bbd393b89c7aeb92da459b",
        "android_client_info": {
          "package_name": "com.elitepersonalchefs.epcapp"
        }
      },
      "oauth_client": [
        {
          "client_id": "579773023106-1nacf3gvqimr167fgtim9vi0j33ncibd.apps.googleusercontent.com",
          "client_type": 1,
          "android_info": {
            "package_name": "com.elitepersonalchefs.epcapp",
            "certificate_hash": "c0b9d4dab55cb5ab0c54f529d853d0a193fdd369"
          }
        },
        {
          "client_id": "579773023106-47lhij8e80j5un2sqjt17k52knbn5th0.apps.googleusercontent.com",
          "client_type": 3
        }
      ],
      "api_key": [
        {
          "current_key": "AIzaSyBsL1Nb5Dusz9vvta2q1s2MyX0x-4sTXTo"
        }
      ],
      "services": {
        "appinvite_service": {
          "other_platform_oauth_client": [
            {
              "client_id": "579773023106-vvaj7tj92aqo2ka51bh59fc91mcqv3pr.apps.googleusercontent.com",
              "client_type": 3
            },
            {
              "client_id": "579773023106-5d3ouee64kc3mp3i4b5ls8qd5se1shms.apps.googleusercontent.com",
              "client_type": 2,
              "ios_info": {
                "bundle_id": "com.elitepersonalchefs.epcapp"
              }
            }
          ]
        }
      }
    }
  ],
  "configuration_version": "1"
}